[
    {
        "id": "582f58433a4fe108",
        "type": "tab",
        "label": "Fluxo 1",
        "disabled": false,
        "info": "",
        "env": []
    },
    {
        "id": "85839996c393ce4c",
        "type": "tab",
        "label": "Fluxo 2",
        "disabled": false,
        "info": "",
        "env": []
    },
    {
        "id": "5e815c2f78f3500e",
        "type": "arduino-board",
        "device": "/dev/ttyACM0"
    },
    {
        "id": "b21b158415a7ed41",
        "type": "inject",
        "z": "582f58433a4fe108",
        "name": "",
        "props": [
            {
                "p": "payload"
            },
            {
                "p": "topic",
                "vt": "str"
            }
        ],
        "repeat": "",
        "crontab": "",
        "once": false,
        "onceDelay": 0.1,
        "topic": "",
        "payload": "",
        "payloadType": "date",
        "x": 220,
        "y": 580,
        "wires": [
            [
                "f8b0cf5d99e8e48b",
                "020a5fda8131788c"
            ]
        ]
    },
    {
        "id": "f8b0cf5d99e8e48b",
        "type": "debug",
        "z": "582f58433a4fe108",
        "name": "debug 1",
        "active": true,
        "tosidebar": true,
        "console": false,
        "tostatus": false,
        "complete": "payload",
        "targetType": "msg",
        "statusVal": "",
        "statusType": "auto",
        "x": 460,
        "y": 580,
        "wires": []
    },
    {
        "id": "020a5fda8131788c",
        "type": "exec",
        "z": "582f58433a4fe108",
        "command": "date",
        "addpay": "",
        "append": "",
        "useSpawn": "false",
        "timer": "",
        "winHide": false,
        "oldrc": false,
        "name": "",
        "x": 450,
        "y": 660,
        "wires": [
            [
                "64ccc10af3c01941"
            ],
            [],
            []
        ]
    },
    {
        "id": "64ccc10af3c01941",
        "type": "debug",
        "z": "582f58433a4fe108",
        "name": "debug 2",
        "active": true,
        "tosidebar": true,
        "console": false,
        "tostatus": false,
        "complete": "payload",
        "targetType": "msg",
        "statusVal": "",
        "statusType": "auto",
        "x": 640,
        "y": 680,
        "wires": []
    },
    {
        "id": "3164b1e17cb3a17f",
        "type": "inject",
        "z": "582f58433a4fe108",
        "name": "",
        "props": [
            {
                "p": "payload"
            },
            {
                "p": "topic",
                "vt": "str"
            }
        ],
        "repeat": "",
        "crontab": "",
        "once": false,
        "onceDelay": 0.1,
        "topic": "",
        "payload": "",
        "payloadType": "date",
        "x": 160,
        "y": 420,
        "wires": [
            [
                "12074ac65a17cda4"
            ]
        ]
    },
    {
        "id": "12074ac65a17cda4",
        "type": "debug",
        "z": "582f58433a4fe108",
        "name": "debug 3",
        "active": true,
        "tosidebar": true,
        "console": false,
        "tostatus": false,
        "complete": "payload",
        "targetType": "msg",
        "statusVal": "",
        "statusType": "auto",
        "x": 500,
        "y": 420,
        "wires": []
    },
    {
        "id": "ff55e29f06472435",
        "type": "arduino in",
        "z": "85839996c393ce4c",
        "name": "push_button arduino",
        "pin": "10",
        "state": "PULLUP",
        "arduino": "5e815c2f78f3500e",
        "x": 150,
        "y": 160,
        "wires": [
            [
                "b10e5aef80540d2a",
                "6fcfe873615d0504"
            ]
        ]
    },
    {
        "id": "f04ea4de3230c818",
        "type": "arduino out",
        "z": "85839996c393ce4c",
        "name": "Led",
        "pin": "12",
        "state": "OUTPUT",
        "arduino": "5e815c2f78f3500e",
        "x": 530,
        "y": 240,
        "wires": []
    },
    {
        "id": "b10e5aef80540d2a",
        "type": "debug",
        "z": "85839996c393ce4c",
        "name": "debug 4",
        "active": true,
        "tosidebar": true,
        "console": false,
        "tostatus": false,
        "complete": "payload",
        "targetType": "msg",
        "statusVal": "",
        "statusType": "auto",
        "x": 380,
        "y": 160,
        "wires": []
    },
    {
        "id": "6fcfe873615d0504",
        "type": "function",
        "z": "85839996c393ce4c",
        "name": "function 1",
        "func": "if (msg.payload == 1) msg.payload = 0;\nelse msg.payload = 1;\nreturn msg;",
        "outputs": 1,
        "timeout": 0,
        "noerr": 0,
        "initialize": "",
        "finalize": "",
        "libs": [],
        "x": 340,
        "y": 420,
        "wires": [
            [
                "be580aa6429c4dd8",
                "f04ea4de3230c818"
            ]
        ]
    },
    {
        "id": "be580aa6429c4dd8",
        "type": "debug",
        "z": "85839996c393ce4c",
        "name": "debug 5",
        "active": true,
        "tosidebar": true,
        "console": false,
        "tostatus": false,
        "complete": "false",
        "statusVal": "",
        "statusType": "auto",
        "x": 540,
        "y": 420,
        "wires": []
    }
]